0 0.5
0.005 0.5
0.01 0.5
0.015 0.5
0.02 0.5
0.025 0.5
0.03 0.5
0.035 0.5
0.04 0.5
0.045 1
0.05 1
0.055 1
0.06 1.5
0.065 1.5
0.07 1.5
0.075 2
0.08 2
0.085 2
0.09 2
0.095 2
0.1 2
0.105 2
0.11 2
0.115 2
0.12 2
0.125 2
0.13 2
0.135 2
0.14 2
0.145 2
0.15 2
0.155 2
0.16 2
0.165 2
0.17 2
0.175 2
0.18 8.5
0.185 10
0.19 11
0.195 12
0.2 12.5
0.205 2
0.21 2
0.215 2
0.22 2
0.225 2
0.23 2
0.235 2
0.24 2
0.245 2
0.25 2
0.255 2
0.26 2
0.265 2
0.27 2
0.275 2
0.28 2
0.285 2
0.29 2
0.295 2
0.3 2
0.305 2
0.31 2
0.315 2
0.32 2
0.325 2
0.33 2
0.335 2
0.34 2
0.345 2
0.35 2
0.355 2
0.36 2
0.365 2
0.37 2
0.375 2
0.38 2
0.385 2
0.39 2
0.395 2
0.4 2
